/* XPM */
static char *_4e9d11576694197d0ff32ec645077c0xH7FQTkB07jXdiAr[] = {
/* columns rows colors chars-per-pixel */
"211 142 175 2 ",
"   c None",
".  c #164E87",
"X  c #03509F",
"o  c #376B9F",
"O  c #0553A2",
"+  c #0A57A5",
"@  c #0B59A7",
"#  c #0D5BA9",
"$  c #115EAB",
"%  c #1461AE",
"&  c #1764B1",
"*  c #1966B3",
"=  c #1D69B6",
"-  c #376DA3",
";  c #386EA5",
":  c #376FA9",
">  c #386FA8",
",  c #3970A7",
"<  c #3771AC",
"1  c #3872AC",
"2  c #3775B1",
"3  c #3976B3",
"4  c #3978B7",
"5  c #3A7BBC",
"6  c #397EC3",
"7  c #397FC3",
"8  c #3A7EC2",
"9  c #3B7EC2",
"0  c #3A7EC3",
"q  c #3A7FC3",
"w  c #3B7FC3",
"e  c #3A7DC1",
"r  c #397EC4",
"t  c #3A7EC4",
"y  c #3A7FC4",
"u  c #3B7FC4",
"i  c #3A7FC5",
"p  c #3A7FC6",
"a  c #3A7DC1",
"s  c #337EC9",
"d  c #3980C5",
"f  c #3B80C4",
"g  c #3A80C5",
"h  c #3B80C5",
"j  c #3A80C6",
"k  c #3B80C6",
"l  c #3B81C6",
"z  c #3A80C7",
"x  c #3A81C7",
"c  c #3B81C7",
"v  c #3B80C6",
"b  c #3782CC",
"n  c #3A81C8",
"m  c #3B81C8",
"M  c #3B81C9",
"N  c #3B81C9",
"B  c #3B82C8",
"V  c #3A82C9",
"C  c #3B82C9",
"Z  c #3A81CA",
"A  c #3B82CA",
"S  c #3A83CA",
"D  c #3B83CA",
"F  c #3B83CB",
"G  c #3A82CB",
"H  c #3A83CC",
"J  c #3B83CC",
"K  c #3A83CD",
"L  c #3B84CC",
"P  c #3A84CD",
"I  c #3B84CD",
"U  c #3A84CC",
"Y  c #3B84CE",
"T  c #3B85CE",
"R  c #3B84CF",
"E  c #3A85CF",
"W  c #3B85CF",
"Q  c #3C84CD",
"!  c #3C85CE",
"~  c #3C85CF",
"^  c #3B83CC",
"/  c #3B85D0",
"(  c #3B85D1",
")  c #3B86D0",
"_  c #3B86D1",
"`  c #3A87D1",
"'  c #3B86D2",
"]  c #3B87D2",
"[  c #3B87D3",
"{  c #3C86D0",
"}  c #3C86D1",
"|  c #3C87D1",
" . c #3C87D2",
".. c #3C87D3",
"X. c #3B87D4",
"o. c #3C87D4",
"O. c #3C87D1",
"+. c #3B88D2",
"@. c #3C88D3",
"#. c #3B88D4",
"$. c #3B88D5",
"%. c #3B88D6",
"&. c #3B89D6",
"*. c #3C88D4",
"=. c #3C88D5",
"-. c #3C89D5",
";. c #3C88D6",
":. c #3C89D6",
">. c #3D89D6",
",. c #3C89D7",
"<. c #3C8AD7",
"1. c #3C89D5",
"2. c #3B89D8",
"3. c #3B8AD8",
"4. c #3B8BDB",
"5. c #3C8AD8",
"6. c #3C8AD9",
"7. c #3C8BD9",
"8. c #3D8BD9",
"9. c #3C8ADA",
"0. c #3C8BDA",
"q. c #3D8BDA",
"w. c #3C8BDB",
"e. c #3B8CDB",
"r. c #3C8CDB",
"t. c #3D8CDB",
"y. c #3C8BDC",
"u. c #3D8BDC",
"i. c #3C8BDD",
"p. c #3B8CDC",
"a. c #3B8CDD",
"s. c #3B8DDD",
"d. c #3B8CDE",
"f. c #3B8EDE",
"g. c #3C8CDC",
"h. c #3D8CDC",
"j. c #3C8DDC",
"k. c #3D8DDC",
"l. c #3C8CDD",
"z. c #3D8CDD",
"x. c #3C8DDD",
"c. c #3D8DDD",
"v. c #3D8CDE",
"b. c #3C8DDE",
"n. c #3D8DDE",
"m. c #3C8DDF",
"M. c #3D8DDF",
"N. c #3D8EDE",
"B. c #3C8EDF",
"V. c #3D8EDF",
"C. c #3C8BDA",
"Z. c #3B8EE0",
"A. c #3C8EE0",
"S. c #3D8EE0",
"D. c #3C8FE0",
"F. c #3D8FE0",
"G. c #3C8EE1",
"H. c #3C8FE1",
"J. c #3D8FE1",
"K. c #3C8EE2",
"L. c #3D8EE2",
"P. c #3C8FE2",
"I. c #3D8FE2",
"U. c #3C8EE4",
"Y. c #3D8FE3",
"T. c #3D90E2",
"R. c #3C90E3",
"E. c #3D90E3",
"W. c #3D90E3",
"Q. c #428CD5",
"!. c #458ED8",
"~. c #4790DA",
"^. c #4B94DD",
"/. c #4E97E0",
"(. c #519AE2",
/* pixels */
"                                                                                                                                                                                                                                                                                                                                                                                                                                      ",
"                                                                                                                                                                                                                                                                                                                                                                                                                                      ",
"                                                                                                                                                                                                                                                                                                                                                                                                                                      ",
"                                                                                                                                                                                                                                                                                                                                                                                                                                      ",
"                                                                                                                                                                                                                                                                                                                                                                                                                                      ",
"                                                                                                                                                                                                                                                                                                                                                                                                                                      ",
"                                                                                                                                                                                                                                                                                                                                                                                                                                      ",
"                                                                                                                                                                                                                                                                                                                                                                                                                                      ",
"                                                                                                                                                                                                                                                                                                                                                                                                                                      ",
"                                                                                                                                                                                                                                                                                                                                                                                                                                      ",
"                                                                                                                                                                                                                                                                                                                                                                                                                                      ",
"                                                                                                                                                                                                                                                                                                                                                                                                                                      ",
"                                                                                                                                                                                                                                                                                                                                                                                                                                      ",
"                                                                                                                                                                                                                                                                                                                                                                                                                                      ",
"                                                                                                                                                                                                                                                                                                                                                                                                                                      ",
"                                                                                                                                                                                                                                                                                                                                                                                                                                      ",
"                                                                                                                                                                                                                                                                                                                                                                                                                                      ",
"                                                                                                                                                                                                                                                                                                                                                                                                                                      ",
"                                                                                                                                                                                                                                                                                                                                                                                Z.I.Z.R.                                              ",
"                                                                                                                                                                                                                                                                                                                                                                            p.k.I.k.I.I.                                              ",
"                                                                                                                                                                                                                                                                                                                                                                      p.k.k.p.I.k.I.Z.I.                                              ",
"                                                                                                                                                                                                                                                                                                                                                                  i.k.k.k.p.k.k.I.k.I.I.                                              ",
"                                                                                                                                                                                                                                                                                                                                                            4.6.6.k.6.r.6.i.i.k.Z.I.I.U.                                              ",
"                                                                                                                                                                                                                                                                                                                                                        >.6.6.r.k.6.6.6.k.i.k.Z.I.k.E.                                                ",
"                                                                                                                                                                                                                                                                                                                                                  >.#.4.#.6.6.6.6.6.6.r.6.k.i.k.Z.I.I.                                                ",
"                                                                                                                                                                                                                                                                                                                                              >.>.#.#.>.>.4.6.6.>.#.6.r.k.k.k.I.I.I.E.                                                ",
"                                                                                                                                                                                                                                                                                                                                          | ] >.>.#.>.4.6.>.X.>.>.4.>.e.6.k.p.I.p.I.                                                  ",
"                                                                                                                                                                                                                                                                                                                                    ] ] | o.] X.#.>.#.>.>.] #.o.#.>.6.r.r.e.I.k.I.I.                                                  ",
"                                                                                                                                                                                                                                                                                                                                ] ! W | ] o.X.>.>.#.X.] ] | #.4.>.e.6.6.r.k.k.E.I.Z.                                                  ",
"                                                                                                                                                                                                                                                                                                                          H ! ! ! ] | W o.| | >.4.  ! ] | o.>.#.#.>.r.6.  I.E.k.I.                                                    ",
"                                                                                                                                                                                                                                                                                                                      H H ! J | W | ] ] ] +.      W W | ] o.X.>.6.#.e.    k.Z.I.I.                                                    ",
"                                                                                                                                                                                                                                                                                                                C B J J ! H J ] | W | ]       H ! W | ] o.o.>.#.r.>.    k.I.I.I.I.                                                    ",
"                                                                                                                                                                                                                                                                                                            B B C W C W L W W ! W           H ! J / ] | ] o.#.>.#.      k.I.Z.I.                                                      ",
"                                                                                                                                                                                                                                                                                                      k x B B B C C W C ! C !             C H H | H | ] >.| 4.#.        I.k.I.I.                                                      ",
"                                                                                                                                                                                                                                                                                                  f x k p B B B C W C W               C C H J ! J / W | ] ] X.        k.p.I.k.Z.                                                      ",
"                                                                                                                                                                                                                                                                                              e k x x f B p J B C H                 C B B H H ! / / ] ] >.X.          p.I.k.I.                                                        ",
"                                                                                                                                                                                                                                                                                        f e e k e k x k C B C                     C x C H J J J J | | | ]             I.Z.I.k.                                                        ",
"                                                                                                                                                                                                                                                                                    5 e 9 e 9 x k k k x p                     r x u C C B J H J | / | ]             p.k.k.I.I.                                                        ",
"                                                                                                                                                                                                                                                                              e 5 f 5 9 e 9 e k x f                         r r u x x C H H H ! H ] (               p.I.k.I.                                                          ",
"                                                                                                                                                                                                                                                                          5 5 5 9 5 f e f e x e                           e u u x x C C   J J J | ] ]               k.k.I.I.                                                          ",
"                                                                                                                                                                                                                                                                    4 5 4 5 5 9 5 9 5 9 9                             u e u u u u C     C J ! W ] |               k.k.I.p.I.                                                          ",
"                                                                                                                                                                                                                                                                5 5 5 5 5 9 5 9 5 9 9                               e e u e u u u     C H H H W |                 p.k.I.I.                                                            ",
"                                                                                                                                                                                                                                                          4 4 4 4 5 5 5 5 5 5 5                                   5 5 e u u e x     x C C W ! W                   k.p.k.k.                                                            ",
"                                                                                                                                                                                                                                                      3 4 4 4 4 4 5 5 5 5 5                                   5 e e e e e e       C C C H C W                   I.k.I.I.R.                                                            ",
"                                                                                                                                                                                                                                                3 3 3 4 5 5 3 5 5 5 4 5                                     5 5 5 e e e e       u C C W B W                     i.k.Z.k.p.                                                            ",
"                                                                                                                                                                                                                                            4 3 3 4 4 4 5 3 4 3 4                                         5 5 5 e 5 e e       x x x C C !                       k.k.I.I.                                                              ",
"                                                                                                                                                                                                                                        1 4 3 3 3 3 3 4 4 4 5                                         4 4 5 5 5 5 e         e u u C C C                       k.i.k.Z.k.                                                              ",
"                                                                                                                                                                                                                                  1 1 3 1 3 3 3 4 3 4 4                                             3 4 5 5 5 5 5         u x x p C C                         p.k.p.k.I.                                                              ",
"                                                                                                                                                                                                                              1 1 3 1 4 1 4 3 3 3 4                                               3 5 4 4 5 5 e         6 u u u p C                           k.i.k.Z.                                                                ",
"                                . . . . . . .                                                                                                                                                                           1 1 1 1 3 1 3 1 3 3 3                                                 3 3 5 3 3 4 5           6 e u C x C                           i.k.k.I.k.                                                                ",
"              . . . . . . . . . . . . . . . . . . . . . . .                                                                                                                                                         , 1 1 1 1 3 1 3 1 3 3                                                   3 3 3 4 5 5 5           e e u r u C                             i.k.p.k.k.                                                                ",
"        . . . . . . . . . . . . . . . . . . . . . . . . . . .                                                                                                                                                 > , , 1 1 1 1 1 1 3 1                                                       3 3 3 3 5 5 4           5 e 6 u u u                               k.k.I.k.                                                                  ",
"    . . . . . . . . . . . . . . . . . . . . . . . . . . . . .                                                                                                                                             ; ; , , 1 , 1 1 1 1 1                                                         3 3 2 4 3 5             e e e e e u                               i.k.k.k.I.                                                                  ",
"  . . . . . . . . . . . . . . . . . . . . . . . . . . . . .                                                                                                                                           ; , ; , , 1 , 1 1 1                                                           1 3 3 3 4 3 4             5 5 e e u x                                 p.I.p.k.I.                                                                  ",
"  . . . . . .             . . . . .                                                                                                                                                                 ; ; ; , , , , , ,                                                             1 2 1 2 3 3 4               5 5 e e u                                   k.i.k.k.                                                                    ",
". . . . .                 . . . . .                                                                                                                                                                 ; ; , , , , 1 1 ,                                                           1 2 2 2 2 3                 5 e e e e                                   k.i.k.k.k.                                                                    ",
". . . .                   . . . . .                                                                                                                                                                   ; ; ; , , , , 1 1 ,                                                   : 1 1 2 1 2 2                 5 5 e 5 e                                     i.k.i.k.k.                                                                    ",
". . . .                 . . . . . .                                                                                                                                                                       , , , 1 , 1 1 1 1 1                                             , 1 < 3 1 2 3                 5 5 e 5 e                                       i.r.k.k.                                                                      ",
". . . .                 . . . . .                                                                                                                                                                             > , 1 1 1 1 1 3 3 1                                       , 1 1 1 1 1                   5 5 5 5 e                                       p.i.k.p.k.                                                                      ",
". . . . .               . . . . .                                                                                                                                                                                 1 1 1 1 1 1 1 1 3 3                               ; > 1 : 1 1 1                   4 4 5 5 5                                         6.i.p.k.i.                                                                      ",
"  . . . .               . . . . .                                                                                                                                                                                     1 1 1 1 4 3 3 1 3 1                         ; ; > : , 1 1                   3 4 5 5 5 e                                         r.r.r.k.                                                                        ",
"  . . .                 . . . . .                                                                                                                                                                                         1 1 1 1 3 3 3 3 3 4                   ; ; : > 1 1                     5 5 5 5 5 5                                           r.k.i.k.                                                                        ",
"                      . . . . . .                                                                                                                                                                                             1 1 3 1 3 3 3 3 3 3           - ; ; ; > , >                     3 3 4 4 5 5                                           4.6.i.k.i.                                                                        ",
"                      . . . . . .                   . . . . . .                 . . . .         . . . .           . . . .                 . . . . .                   . . . . .                                                   1 3 3 3 3 4 4 4 4 4     o ; - ; > > ,                     3 5 5 4 4 5                                             r.i.k.k.                                                                          ",
"                      . . . . .                   . . . . . . . .             . . . . .     . . . . . .       . . . . . .             . . . . . . . .             . . . . . . . . .                                                   3 3 3 3 4 4 4 4 1 - - o - ; ;                       2 4 4 4 4 4                                               6.k.k.k.                                                                          ",
"                      . . . . .                 . . . . . . . . . .           . . . .     . . . . . . .     . . . . . . .           . . . . . . . . . .         . . . . . . . . . .                                                       3 4 3 4 4 1 o - - - - ;                       3 4 4 4 4 4                                               6.r.r.k.i.                                                                          ",
"                      . . . . .               . . . . . . . . . . . .         . . . .     . . . . . . .   . . . . . . . .         . . . . .     . . . .       . . . . . . . . . . . .                                                         4 3 4 - o - - - -                       3 2 4 4 4 5                                                 6.r.r.k.                                                                            ",
"                      . . . . .             . . . . .     . . . . . .         . . . .   . . . . . . . .   . . . . . . . .         . . . .       . . . .       . . . .     . . . . . .                                                             4 - o o ; ,                       3 3 3 4 4 3                                                   r.r.r.i.                                                                            ",
"                      . . . . .             . . . . .     . . . . . .       . . . . . . . . . . . . . . . . . . . . . . .       . . . . .       . . . .     . . . . .     . . . . . . .                                                             3 1 > 4 4                     2 3 3 3 3 4                                                   4.6.6.k.4.                                                                            ",
"                    . . . . . .             . . . .         . . . . . . . . . . . . . . . .   . . . . . . . .   . . . . .       . . . .         . . . .     . . . .         . . . . . . . . . . .                                                     4 4 4 5                   3 1 3 3 4 3                                                     6.6.k.i.                                                                              ",
"                    . . . . .             . . . . .         . . . . . . . . . . . . . . .     . . . . . . .     . . . .         . . . .       . . . .       . . . .         . . . . . . . . . . .                                                     5 4 5 4                 2 1 2 2 3 3                                                       6.r.6.k.                                                                              ",
"                    . . . . .             . . . . .           . . . . . . . . . . . . . .     . . . . . . .     . . . .         . . . . . . . . . .         . . . .           . . . . . . . . . .                                                     4 4 5 5               3 1 3 2 2 3                                                       6.r.6.k.4.                                                                              ",
"                    . . . . .             . . . . .           . . . . . . . . . . . . .       . . . . . .       . . . .         . . . . . . . . .           . . . .           . . . . . . . .                                                         4 5 4 5 5             3 3 1 3 3 e                                                       #.6.k.6.                                                                                ",
"                    . . . . .             . . . . .           . . . .       . . . . . .       . . . . . .       . . . .         . . . . . . .             . . . . .           . . . .                                                                 4 5 5 5 5             3 1 3 3 e e x x                                                   r.r.6.k.                                                                                ",
"                    . . . . .               . . . . .       . . . . .       . . . . . .       . . . . .         . . . .       . . . . . .               . . . . . . .         . . . .                                                                   4 5 5 4           e e 4 3 5 e k u x x C                                             >.r.6.r.r.                                                                                ",
"                  . . . . . .               . . . . . .   . . . . .         . . . . .         . . . . .       . . . . . . . . . . . . . . .         . . . . . . . . . .   . . . . . .                                                                   5 5 5 5           e e e 9 x x u k u k B B                                           >.r.r.r.                                                                                  ",
"                  . . . . . .                 . . . . . . . . . . .         . . . . .         . . . . .         . . . . . . . . . . . . . . . . . . . . . . . . . . . . . . . . . .                                                                     4 5 5 5           e e e e     x u x x B B J p                                       6.6.6.k.                                                                                  ",
"                  . . . . . .                 . . . . . . . . . .           . . . . .         . . . .           . . . . . . . .     . . . . . . . . . . . .     . . . . . . . . .                                                                       5 4 5 5         e e u e e       x x k k B B B B                                   4.6.r.k.p.                                                                                  ",
"                    . . . .                       . . . . . . .               . . .           . . . .             . . . . . .         . . . . . . . . .           . . . . . . .                                                                         4 5 5 5 4       5 e e u             x B B J B J J J                               #.6.6.6.                                                                                    ",
"                      .                                 .                       .                 .                   .                       . .                       .                                                                                 5 5 5 5       9 e e e                 B B J J | J ! !                           6.r.6.k.                                                                                    ",
"                                                                                                                                                                                                                                                          5 5 5 5     5 f e e 9                   C C W C W L W H                       #.6.6.r.e.                                                                                    ",
"                                                                                                                                                                                                                                                          5 5 5 9     5 f e 9                         C ^ L ! L ! W ]                   e.6.r.6.                                                                                      ",
"                                                                                                                                                                                                                                                          5 5 5 5     5 5 e e                             ! W W ] ! ] | ]               >.6.6.6.                                                                                      ",
"                                                                                                                                                                                                                                                          5 5 5 5 5 9 f f e 9                               W W ! ] | ] | ]           6.6.6.r.6.                                                                                      ",
"                                                                                                                                                                                                                                                          5 5 5 5 9 5 5 e e                                     W | W | ] | X.#.      #.>.r.>.                                                                                        ",
"                                                                                                                                                                                                                                                            5 5 e 5 9 e f e                                         | ] o.| >.@.6.#.  >.r.6.r.                                                                                        ",
"                                                                                                                                                                                                                                                            5 5 5 e 5 f 5 f                                           | ] @.@.>.>.#.#.r.e.>.>.                                                                                        ",
"                                                                                                                                                                                                                                                            5 9 5 5 9 5 e                                                 +.@.>.#.>.>.r.>.r.r.                                                                                        ",
"                                                                                                                                                              O O + @                                                                                       5 5 5 9 5 e e                                                   >.>.>.>.#.6.r.>.                                                                                          ",
"                                                                                                                                                              O O + # #                                                                                     5 5 e 5 9 e e                                                       #.4.>.6.>.e.                                                                                          ",
"                                                                                                                                                              O O + @ $ %                                                                                     5 5 e e e                                                             #.r.6.                                                                                            ",
"                                                                                                                                                                + + # $ % *                                                                                   9 e 5 9 5                                                                                                                                                               ",
"                                                                                                                                                                  @ # $ % & * =                                                                               5 5 e e e                                                                                                                                                               ",
"                                                                                                                                                                    # $ % & = =                                                                               5 e 5 e                                                                                                                                                                 ",
"                                                                                                                                                                      % % * * =                                                                                 5 e e                                                                                                                                                                 ",
"                                                                                                                                                                          * =                                                                                                                                                                                                                                                         ",
"                                                                                                                                                                                                                                    W.W.E.E.                                                                                                                                                                                          ",
"                                                                                                                                                                                          s b H Q.!.!.                        W.W.W.W.W.E.E.                                                                                                                                                                                          ",
"                                                                                                                                                                                          s b W ! Q.Q.~.^./.(.              I.W.W.W.W.W.E.E.                                                                                                                                                                                          ",
"                                                                                                                                                                                          s b W @.Q.Q.~.^.^.(.              W.W.W.W.W.W.E.                                                                                                                                                                                            ",
"                                                                                                                                                                                            H W | Q.!.~.^./.(.              I.E.W.W.U.                                                                                                                                                                                                ",
"                                                                                                                                                                                                  Q.~.~.^./.(.                                                                                                                                                                                                                        ",
"                                                                                                                                                                                                                                                                                                                                                                                                                                      ",
"                                                                                                                                                                                                                                                                                                                                                                                                                                      ",
"                                                                                                                                                                                                                                                                                                                                                                                                                                      ",
"                                                                                                                                                                                                                                                                                                                                                                                                                                      ",
"                                                                                                                                                                                                                                                                                                                                                                                                                                      ",
"                                                                                                                                                                                                                                                                                                                                                                                                                                      ",
"                                                                                                                                                                                                                                                                                                                                                                                                                                      ",
"                                                                                                                                                                                                                                                                                                                                                                                                                                      ",
"                                                                                                                                                                                                                                                                                                                                                                                                                                      ",
"                                                                                                                                                                                                                                                                                                                                                                                                                                      ",
"                                                                                                                                                                                                                                                                                                                                                                                                                                      ",
"                                                                                                                                                                                                                                                                                                                                                                                                                                      ",
"                                                                                                                                                                                                                                                                                                                                                                                                                                      ",
"                                                                                                                                                                                                                                                                                                                                                                                                                                      ",
"                                                                                                                                                                                                                                                                                                                                                                                                                                      ",
"                                                                                                                                                                                                                                                                                                                                                                                                                                      ",
"                                                                                                                                                                                                                                                                                                                                                                                                                                      ",
"                                                                                                                                                                                                                                                                                                                                                                                                                                      ",
"                                                                                                                                                                                                                                                                                                                                                                                                                                      ",
"                                                                                                                                                                                                                                                                                                                                                                                                                                      ",
"                                                                                                                                                                                                                                                                                                                                                                                                                                      ",
"                                                                                                                                                                                                                                                                                                                                                                                                                                      ",
"                                                                                                                                                                                                                                                                                                                                                                                                                                      ",
"                                                                                                                                                                                                                                                                                                                                                                                                                                      ",
"                                                                                                                                                                                                                                                                                                                                                                                                                                      ",
"                                                                                                                                                                                                                                                                                                                                                                                                                                      ",
"                                                                                                                                                                                                                                                                                                                                                                                                                                      ",
"                                                                                                                                                                                                                                                                                                                                                                                                                                      ",
"                                                                                                                                                                                                                                                                                                                                                                                                                                      ",
"                                                                                                                                                                                                                                                                                                                                                                                                                                      ",
"                                                                                                                                                                                                                                                                                                                                                                                                                                      ",
"                                                                                                                                                                                                                                                                                                                                                                                                                                      ",
"                                                                                                                                                                                                                                                                                                                                                                                                                                      ",
"                                                                                                                                                                                                                                                                                                                                                                                                                                      ",
"                                                                                                                                                                                                                                                                                                                                                                                                                                      ",
"                                                                                                                                                                                                                                                                                                                                                                                                                                      ",
"                                                                                                                                                                                                                                                                                                                                                                                                                                      ",
"                                                                                                                                                                                                                                                                                                                                                                                                                                      ",
"                                                                                                                                                                                                                                                                                                                                                                                                                                      ",
"                                                                                                                                                                                                                                                                                                                                                                                                                                      "
};
